[gd_scene load_steps=6 format=2]

[ext_resource path="res://scripts/gameElements/Lock.gd" type="Script" id=1]
[ext_resource path="res://scenes/gameElements/Paddle.tscn" type="PackedScene" id=2]
[ext_resource path="res://shaders/ShaderColor.shader" type="Shader" id=3]

[sub_resource type="RectangleShape2D" id=1]
extents = Vector2( 6.79037, 33.3199 )

[sub_resource type="ShaderMaterial" id=2]
resource_local_to_scene = true
shader = ExtResource( 3 )
shader_param/targ_color = Plane( 1, 1, 1, 1 )

[node name="PaddleLock" type="RigidBody2D"]
collision_mask = 4
mode = 2
gravity_scale = 0.0
linear_damp = 8.0
angular_damp = 4.0
script = ExtResource( 1 )
rotation_direction = 1

[node name="Hitbox" type="CollisionShape2D" parent="."]
shape = SubResource( 1 )

[node name="PositionLocker" type="RemoteTransform2D" parent="."]
remote_path = NodePath("../Paddle")
update_rotation = false
update_scale = false

[node name="Paddle" parent="." instance=ExtResource( 2 )]
material = SubResource( 2 )
