[gd_scene load_steps=2 format=2]

[ext_resource path="res://scripts/effects/ScreenShake.gd" type="Script" id=1]

[node name="Camera" type="Camera2D"]
anchor_mode = 0
current = true

[node name="ScreenShake" type="Node2D" parent="."]
script = ExtResource( 1 )

[node name="Duration" type="Timer" parent="ScreenShake"]
one_shot = true

[connection signal="timeout" from="ScreenShake/Duration" to="ScreenShake" method="_on_Duration_timeout"]
